Multitrait BLUP with metan
…
BLUPs

I.e. predicted means (=point estimates for genotype mean in each
trait)

get_model_data(mod, "blupg") # Predicted means

## Class of the model: gamem

## Variable extracted: blupg

## # A tibble: 34 × 9
##    GEN     daystoflower plantheight earheight population lodged moisture
##    <chr>          <dbl>       <dbl>     <dbl>      <dbl>  <dbl>    <dbl>
##  1 1866Bt          78.6        243.      88.0     60006. 0.395      11.1
##  2 2888IMI         77.9        242.      94.9     59863. 0.128      11.3
##  3 2K103Y          80.3        240.      78.2     58434. 0.0955     13.1
##  4 2K207Y          81.9        240.      78.7     60653. 0.195      10.7
##  5 2K208Y          82.4        257.      96.2     61856. 0.0955     12.3
##  6 2K213Y          77.6        235.      91.8     59421. 0.0980     11.6
##  7 31B13           80.3        257.     102.      60958. 0.0672     11.0
##  8 31R88           79.1        262.      95.3     60589. 0.0980     12.1
##  9 3223            80.6        257.     103.      61650. 0.223      10.9
## 10 32P76           77.6        239.      90.1     61668. 0.128      10.9
## # ℹ 24 more rows
## # ℹ 2 more variables: testweight <dbl>, yield <dbl>
…
